Aspect ID,Aspect,Welfare,Middle Class,Neo-Liberal Economics,Informal Sector,Government,No. of Articles
0,Failure of RBI to stabilize economy and answer questions raised post demonetisation,0,0,0,0,1,1479
1,Negative impact of Demonetisation on small and medium scale industries and its employees,-1,-1,0,-1,1,789
3,Long queues at banks and ATMs and cash crunch,-1,-1,0,0,1,438
5,Court verdicts related to demonetisation and penalties issued for black money hoarders,0,-1,0,0,0,1966
6,Negative impact on retail and stock markets and suspicious deposits in bank accounts,0,0,1,0,0,2045
7,Vendors going cashless and negative impact on them due to demonetisation,-1,-1,0,-1,0,1585
8,Probes and arrests of black money hoarders,0,0,0,0,-1,574
9,Suffering of farmers and relief measures for them,-1,0,0,0,1,605
11,Huge deposits in PMY bank accounts post demonetisation and announcement of minimum balance requirements,1,1,0,0,1,1156
13,Negative imapct of demonetisation on rural economy national economy industries GDP job creation etc,-1,-1,-1,-1,0,571
14,Appreciation by PM for supporting Demonitisation,1,1,0,0,1,1653
15,Negative impact of demonetisation on real estate,0,-1,0,0,0,2561
16,Enhanced security features on new currency notes,0,0,0,0,0,1022
18,Opposition's comments on demonetisation ,0,0,0,0,-1,2826
19,Encouraging cashless payments post demonetisation for it helps poor and the middle class citizens,-1,-1,0,0,1,1133
